/opt/packages/cuda/8.0/bin/nvcc -o ex06.o -Xcompiler -fPIC -g -I/opt/intel/compilers_and_libraries_2017.4.196/linux/mpi/intel64/include -arch=sm_37  -c --compiler-options="-fPIC  -Wall -Wwrite-strings -Wno-strict-aliasing -Wno-unknown-pragmas -fstack-protector -fvisibility=hidden -g3   -I/home/tisaac/opt/petsc/cse6230-double/include -I/home/tisaac/opt/petsc/cse6230-double/include -I/home/tisaac/opt/petsc/cse6230-double/include -I/opt/packages/cuda/8.0/include   " `pwd`/ex06.cu
/home/arjunch/ex06/ex06.cu(97): warning: variable "i" is used before its value is set

/home/arjunch/ex06/ex06.cu(63): warning: variable "gridSize" was declared but never referenced

/home/arjunch/ex06/ex06.cu(70): warning: variable "xi" was set but never used

/home/arjunch/ex06/ex06.cu(97): warning: variable "i" is used before its value is set

/home/arjunch/ex06/ex06.cu(63): warning: variable "gridSize" was declared but never referenced

/home/arjunch/ex06/ex06.cu(70): warning: variable "xi" was set but never used

mpicc -fPIC  -Wall -Wwrite-strings -Wno-strict-aliasing -Wno-unknown-pragmas -fstack-protector -fvisibility=hidden -g3  -o ex06 ex06.o -Wl,-rpath,/home/tisaac/opt/petsc/cse6230-double/lib -L/home/tisaac/opt/petsc/cse6230-double/lib -Wl,-rpath,/home/tisaac/opt/petsc/cse6230-double/lib -L/home/tisaac/opt/petsc/cse6230-double/lib -Wl,-rpath,/opt/intel/compilers_and_libraries_2017.4.196/linux/mkl/lib/intel64 -L/opt/intel/compilers_and_libraries_2017.4.196/linux/mkl/lib/intel64 -Wl,-rpath,/opt/packages/cuda/8.0/lib64 -L/opt/packages/cuda/8.0/lib64 -Wl,-rpath,/opt/intel/compilers_and_libraries_2017.4.196/linux/mpi/intel64/lib/release_mt -L/opt/intel/compilers_and_libraries_2017.4.196/linux/mpi/intel64/lib/release_mt -Wl,-rpath,/opt/intel/compilers_and_libraries_2017.4.196/linux/mpi/intel64/lib -L/opt/intel/compilers_and_libraries_2017.4.196/linux/mpi/intel64/lib -Wl,-rpath,/usr/lib/gcc/x86_64-redhat-linux/4.8.5 -L/usr/lib/gcc/x86_64-redhat-linux/4.8.5 -Wl,-rpath,/opt/intel/clck/2017.2.019/lib/intel64 -L/opt/intel/clck/2017.2.019/lib/intel64 -Wl,-rpath,/opt/intel/compilers_and_libraries_2017.4.196/linux/ipp/lib/intel64 -L/opt/intel/compilers_and_libraries_2017.4.196/linux/ipp/lib/intel64 -Wl,-rpath,/opt/intel/compilers_and_libraries_2017.4.196/linux/compiler/lib/intel64_lin -L/opt/intel/compilers_and_libraries_2017.4.196/linux/compiler/lib/intel64_lin -Wl,-rpath,/opt/intel/compilers_and_libraries_2017.4.196/linux/mkl/lib/intel64_lin -L/opt/intel/compilers_and_libraries_2017.4.196/linux/mkl/lib/intel64_lin -Wl,-rpath,/opt/intel/compilers_and_libraries_2017.4.196/linux/tbb/lib/intel64/gcc4.7 -L/opt/intel/compilers_and_libraries_2017.4.196/linux/tbb/lib/intel64/gcc4.7 -Wl,-rpath,/opt/intel/compilers_and_libraries_2017.4.196/linux/daal/lib/intel64_lin -L/opt/intel/compilers_and_libraries_2017.4.196/linux/daal/lib/intel64_lin -Wl,-rpath,/opt/intel/compilers_and_libraries_2017.4.196/linux/tbb/lib/intel64_lin/gcc4.4 -L/opt/intel/compilers_and_libraries_2017.4.196/linux/tbb/lib/intel64_lin/gcc4.4 -Wl,-rpath,/opt/intel/compilers_and_libraries_2017.4.196/linux/mpi/intel64/lib/debug_mt -L/opt/intel/compilers_and_libraries_2017.4.196/linux/mpi/intel64/lib/debug_mt -Wl,-rpath,/opt/intel/mpi-rt/2107.0.0/intel64/lib/release_mt -Wl,-rpath,/opt/intel/mpi-rt/2017.0.0/intel64/lib -Wl,-rpath,/opt/intel/mpi-rt/2017.0.0/intel64/lib/debug_mt -lpetsc -lfftw3_mpi -lfftw3 -lmkl_intel_lp64 -lmkl_sequential -lmkl_core -lpthread -lcufft -lcublas -lcudart -lcusparse -lX11 -lm -lgfortran -lm -lgfortran -lm -lquadmath -lmpicxx -lstdc++ -lm -Wl,-rpath,/opt/intel/compilers_and_libraries_2017.4.196/linux/mpi/intel64/lib/release_mt -L/opt/intel/compilers_and_libraries_2017.4.196/linux/mpi/intel64/lib/release_mt -Wl,-rpath,/opt/intel/compilers_and_libraries_2017.4.196/linux/mpi/intel64/lib -L/opt/intel/compilers_and_libraries_2017.4.196/linux/mpi/intel64/lib -Wl,-rpath,/usr/lib/gcc/x86_64-redhat-linux/4.8.5 -L/usr/lib/gcc/x86_64-redhat-linux/4.8.5 -Wl,-rpath,/opt/intel/clck/2017.2.019/lib/intel64 -L/opt/intel/clck/2017.2.019/lib/intel64 -Wl,-rpath,/opt/intel/compilers_and_libraries_2017.4.196/linux/ipp/lib/intel64 -L/opt/intel/compilers_and_libraries_2017.4.196/linux/ipp/lib/intel64 -Wl,-rpath,/opt/intel/compilers_and_libraries_2017.4.196/linux/compiler/lib/intel64_lin -L/opt/intel/compilers_and_libraries_2017.4.196/linux/compiler/lib/intel64_lin -Wl,-rpath,/opt/intel/compilers_and_libraries_2017.4.196/linux/mkl/lib/intel64_lin -L/opt/intel/compilers_and_libraries_2017.4.196/linux/mkl/lib/intel64_lin -Wl,-rpath,/opt/intel/compilers_and_libraries_2017.4.196/linux/tbb/lib/intel64/gcc4.7 -L/opt/intel/compilers_and_libraries_2017.4.196/linux/tbb/lib/intel64/gcc4.7 -Wl,-rpath,/opt/intel/compilers_and_libraries_2017.4.196/linux/daal/lib/intel64_lin -L/opt/intel/compilers_and_libraries_2017.4.196/linux/daal/lib/intel64_lin -Wl,-rpath,/opt/intel/compilers_and_libraries_2017.4.196/linux/tbb/lib/intel64_lin/gcc4.4 -L/opt/intel/compilers_and_libraries_2017.4.196/linux/tbb/lib/intel64_lin/gcc4.4 -ldl -Wl,-rpath,/opt/intel/compilers_and_libraries_2017.4.196/linux/mpi/intel64/lib/release_mt -Wl,-rpath,/opt/intel/compilers_and_libraries_2017.4.196/linux/mpi/intel64/lib -Wl,-rpath,/opt/intel/mpi-rt/2107.0.0/intel64/lib/release_mt -Wl,-rpath,/opt/intel/mpi-rt/2017.0.0/intel64/lib -lmpifort -lmpi -lmpigi -lrt -lpthread -lgcc_s -ldl  -lcurand
true ex06
/usr/bin/rm -f -f ex06.o
e953b45acc8f27de5af813b1e6cf2619ab1c47aa
:100644 100644 afa02198a4b486c5dddb5c258276a474cb3399c9 0000000000000000000000000000000000000000 M	ex06.cu
==2273== NVPROF is profiling process 2273, command: ./ex06 -num_steps 1000
Testing 10000 particles in 3 dimensions with steric repulsion:
  particle mass:   1.
  particle radius: 1.
  k_repulsion:     100.
  box length:      68.
  time step:       0.0001
  number of steps: 1000.
Average distance traveled at time 0.: 0.
Average distance traveled at time 0.1: 0.709342
==2273== Profiling application: ./ex06 -num_steps 1000
==2273== Profiling result:
Time(%)      Time     Calls       Avg       Min       Max  Name
 95.04%  732.75ms      1000  732.75us  726.26us  770.20us  compute_forces(double*, double*)
  4.24%  32.677ms      1000  32.677us  23.679us  44.256us  sum_noise_and_forces(double*, double*, curandStateXORWOW*)
  0.50%  3.8877ms         1  3.8877ms  3.8877ms  3.8877ms  setup_kernel(curandStateXORWOW*, unsigned long)
  0.15%  1.1916ms      1000  1.1910us  1.1510us  1.6960us  [CUDA memset]
  0.06%  427.23us         2  213.61us  207.68us  219.55us  average_distance(double*, double*)
  0.00%  28.960us         1  28.960us  28.960us  28.960us  initialize_points(double*, curandStateXORWOW*)
  0.00%  14.880us        11  1.3520us  1.2480us  1.7600us  [CUDA memcpy HtoD]
  0.00%  6.2080us         2  3.1040us  3.1040us  3.1040us  [CUDA memcpy DtoH]
  0.00%  3.9680us         1  3.9680us  3.9680us  3.9680us  [CUDA memcpy DtoD]

==2273== API calls:
Time(%)      Time     Calls       Avg       Min       Max  Name
 50.07%  770.32ms      1002  768.78us  213.18us  3.4001ms  cudaDeviceSynchronize
 45.43%  698.91ms         8  87.364ms  8.8280us  697.64ms  cudaFree
  2.64%  40.632ms      2004  20.275us  6.7710us  17.285ms  cudaLaunch
  0.83%  12.701ms      1000  12.700us  8.6200us  227.65us  cudaMemset
  0.54%  8.3276ms        10  832.76us  7.4700us  4.3252ms  cudaMemcpyToSymbol
  0.14%  2.2167ms       178  12.453us     168ns  450.35us  cuDeviceGetAttribute
  0.09%  1.3668ms         7  195.25us  10.130us  355.54us  cudaMalloc
  0.08%  1.2354ms      5008     246ns     179ns  1.8010us  cudaSetupArgument
  0.07%  1.0155ms         1  1.0155ms  1.0155ms  1.0155ms  cudaGetDeviceProperties
  0.05%  794.54us      2004     396ns     249ns  3.5060us  cudaConfigureCall
  0.03%  531.32us         2  265.66us  265.36us  265.95us  cuDeviceTotalMem
  0.02%  232.42us         2  116.21us  98.625us  133.79us  cuDeviceGetName
  0.00%  58.707us         2  29.353us  27.950us  30.757us  cudaMemcpyFromSymbol
  0.00%  54.418us         2  27.209us  25.602us  28.816us  cudaMemcpy
  0.00%  15.355us        16     959ns     606ns  4.1910us  cudaEventCreateWithFlags
  0.00%  12.125us         2  6.0620us  5.8860us  6.2390us  cudaThreadSynchronize
  0.00%  11.840us        16     740ns     540ns  2.1250us  cudaEventDestroy
  0.00%  9.8310us         1  9.8310us  9.8310us  9.8310us  cudaSetDeviceFlags
  0.00%  7.4120us        11     673ns     344ns  2.7760us  cudaDeviceGetAttribute
  0.00%  4.4130us         4  1.1030us     313ns  2.9590us  cuDeviceGetCount
  0.00%  2.9280us         1  2.9280us  2.9280us  2.9280us  cudaGetDevice
  0.00%  1.7370us         4     434ns     302ns     695ns  cuDeviceGet
  0.00%     760ns         1     760ns     760ns     760ns  cuInit
  0.00%     656ns         1     656ns     656ns     656ns  cuDriverGetVersion
